<?xml version="1.0" encoding="UTF-8"?>
<testng-results ignored="4" total="7" passed="3" failed="0" skipped="0">
  <reporter-output>
  </reporter-output>
  <suite started-at="2020-11-19T20:23:21Z" name="Tests" finished-at="2020-11-19T20:26:10Z" duration-ms="169383">
    <groups>
    </groups>
    <test started-at="2020-11-19T20:23:21Z" name="primerTest" finished-at="2020-11-19T20:26:10Z" duration-ms="169383">
      <class name="TransferenciasTest">
        <test-method signature="transferenciaTest()[pri:0, instance:TransferenciasTest@60d84f61]" started-at="2020-11-19T21:24:47Z" name="transferenciaTest" finished-at="2020-11-19T21:26:08Z" duration-ms="80812" status="PASS">
          <reporter-output>
          </reporter-output>
        </test-method> <!-- transferenciaTest -->
      </class> <!-- TransferenciasTest -->
      <class name="LoginTest">
        <test-method is-config="true" signature="setUpDriver()[pri:0, instance:LoginTest@781e7326]" started-at="2020-11-19T21:23:21Z" name="setUpDriver" finished-at="2020-11-19T21:24:14Z" duration-ms="53645" status="PASS">
          <reporter-output>
          </reporter-output>
        </test-method> <!-- setUpDriver -->
        <test-method signature="loginTest()[pri:0, instance:LoginTest@781e7326]" started-at="2020-11-19T21:24:14Z" name="loginTest" finished-at="2020-11-19T21:24:41Z" duration-ms="27107" status="PASS">
          <reporter-output>
          </reporter-output>
        </test-method> <!-- loginTest -->
        <test-method is-config="true" signature="closeDriver()[pri:0, instance:LoginTest@781e7326]" started-at="2020-11-19T21:26:08Z" name="closeDriver" finished-at="2020-11-19T21:26:10Z" duration-ms="2087" status="PASS">
          <reporter-output>
          </reporter-output>
        </test-method> <!-- closeDriver -->
      </class> <!-- LoginTest -->
      <class name="HomeTest">
        <test-method signature="homeTest()[pri:0, instance:HomeTest@22680f52]" started-at="2020-11-19T21:24:42Z" name="homeTest" finished-at="2020-11-19T21:24:47Z" duration-ms="5431" status="PASS">
          <reporter-output>
          </reporter-output>
        </test-method> <!-- homeTest -->
      </class> <!-- HomeTest -->
    </test> <!-- primerTest -->
  </suite> <!-- Tests -->
</testng-results>
